G75*
%MOIN*%
%OFA0B0*%
%FSLAX24Y24*%
%IPPOS*%
%LPD*%
%AMOC8*
5,1,8,0,0,1.08239X$1,22.5*
%
%ADD10C,0.0740*%
%ADD11R,0.0800X0.0800*%
%ADD12C,0.0800*%
%ADD13C,0.0740*%
%ADD14C,0.0660*%
%ADD15C,0.0100*%
%ADD16C,0.0337*%
%ADD17C,0.0860*%
D10*
X001650Y009057D03*
X001650Y010057D03*
X001650Y011057D03*
D11*
X001400Y001557D03*
X004150Y001557D03*
D12*
X002778Y001557D03*
X005528Y001557D03*
D13*
X002020Y004057D02*
X001280Y004057D01*
X001280Y005057D02*
X002020Y005057D01*
D14*
X006650Y006227D02*
X006650Y006887D01*
X007650Y006887D02*
X007650Y006227D01*
X008650Y006227D02*
X008650Y006887D01*
D15*
X008600Y006861D02*
X008700Y006861D01*
X008700Y006763D02*
X008600Y006763D01*
X008600Y006664D02*
X008700Y006664D01*
X008700Y006607D02*
X008600Y006607D01*
X008600Y007365D01*
X008538Y007356D01*
X008466Y007332D01*
X008398Y007298D01*
X008337Y007253D01*
X008284Y007200D01*
X008239Y007139D01*
X008205Y007072D01*
X008185Y007008D01*
X008108Y007193D01*
X007956Y007345D01*
X007757Y007427D01*
X007543Y007427D01*
X007344Y007345D01*
X007192Y007193D01*
X007150Y007091D01*
X007108Y007193D01*
X006956Y007345D01*
X006757Y007427D01*
X006543Y007427D01*
X006344Y007345D01*
X006192Y007193D01*
X006110Y006995D01*
X006110Y006120D01*
X006192Y005921D01*
X006344Y005770D01*
X006543Y005687D01*
X006757Y005687D01*
X006956Y005770D01*
X007010Y005824D01*
X007010Y005822D01*
X005745Y004557D01*
X002329Y004557D01*
X002249Y004590D01*
X002293Y004613D01*
X002359Y004661D01*
X002417Y004719D01*
X002465Y004785D01*
X002502Y004858D01*
X002527Y004936D01*
X002539Y005007D01*
X001700Y005007D01*
X001700Y005107D01*
X002539Y005107D01*
X002527Y005179D01*
X002502Y005257D01*
X002465Y005330D01*
X002417Y005396D01*
X002359Y005454D01*
X002293Y005502D01*
X002220Y005539D01*
X002142Y005565D01*
X002061Y005577D01*
X001700Y005577D01*
X001700Y005107D01*
X001600Y005107D01*
X001600Y005007D01*
X000761Y005007D01*
X000773Y004936D01*
X000798Y004858D01*
X000835Y004785D01*
X000883Y004719D01*
X000941Y004661D01*
X001007Y004613D01*
X001051Y004590D01*
X000971Y004557D01*
X000410Y004557D01*
X000410Y013070D01*
X000413Y013047D01*
X000627Y012579D01*
X000627Y012579D01*
X000965Y012189D01*
X001398Y011911D01*
X001892Y011766D01*
X002408Y011766D01*
X002902Y011911D01*
X003335Y012189D01*
X003335Y012189D01*
X003335Y012189D01*
X003673Y012579D01*
X003887Y013047D01*
X003887Y013047D01*
X003960Y013557D01*
X003887Y014067D01*
X003887Y014067D01*
X003673Y014536D01*
X003335Y014925D01*
X002902Y015204D01*
X002902Y015204D01*
X002583Y015297D01*
X007330Y015297D01*
X006932Y015191D01*
X006508Y014946D01*
X006162Y014599D01*
X005917Y014175D01*
X005790Y013702D01*
X005790Y013212D01*
X005917Y012739D01*
X006162Y012315D01*
X006508Y011969D01*
X006932Y011724D01*
X007405Y011597D01*
X007895Y011597D01*
X008368Y011724D01*
X008792Y011969D01*
X009138Y012315D01*
X009383Y012739D01*
X009510Y013212D01*
X009510Y013702D01*
X009383Y014175D01*
X009138Y014599D01*
X008792Y014946D01*
X008368Y015191D01*
X007970Y015297D01*
X009890Y015297D01*
X009890Y004557D01*
X007555Y004557D01*
X008013Y005015D01*
X008193Y005195D01*
X008290Y005430D01*
X008290Y005909D01*
X008337Y005861D01*
X008398Y005817D01*
X008466Y005782D01*
X008538Y005759D01*
X008600Y005749D01*
X008600Y006507D01*
X008700Y006507D01*
X008700Y005749D01*
X008762Y005759D01*
X008834Y005782D01*
X008902Y005817D01*
X008963Y005861D01*
X009016Y005915D01*
X009061Y005976D01*
X009095Y006043D01*
X009118Y006115D01*
X009130Y006190D01*
X009130Y006507D01*
X008700Y006507D01*
X008700Y006607D01*
X009130Y006607D01*
X009130Y006925D01*
X009118Y007000D01*
X009095Y007072D01*
X009061Y007139D01*
X009016Y007200D01*
X008963Y007253D01*
X008902Y007298D01*
X008834Y007332D01*
X008762Y007356D01*
X008700Y007365D01*
X008700Y006607D01*
X008700Y006566D02*
X009890Y006566D01*
X009890Y006664D02*
X009130Y006664D01*
X009130Y006763D02*
X009890Y006763D01*
X009890Y006861D02*
X009130Y006861D01*
X009124Y006960D02*
X009890Y006960D01*
X009890Y007058D02*
X009099Y007058D01*
X009047Y007157D02*
X009890Y007157D01*
X009890Y007255D02*
X008960Y007255D01*
X008768Y007354D02*
X009890Y007354D01*
X009890Y007452D02*
X000410Y007452D01*
X000410Y007354D02*
X006365Y007354D01*
X006254Y007255D02*
X000410Y007255D01*
X000410Y007157D02*
X006177Y007157D01*
X006136Y007058D02*
X000410Y007058D01*
X000410Y006960D02*
X006110Y006960D01*
X006110Y006861D02*
X000410Y006861D01*
X000410Y006763D02*
X006110Y006763D01*
X006110Y006664D02*
X000410Y006664D01*
X000410Y006566D02*
X006110Y006566D01*
X006110Y006467D02*
X000410Y006467D01*
X000410Y006369D02*
X006110Y006369D01*
X006110Y006270D02*
X000410Y006270D01*
X000410Y006172D02*
X006110Y006172D01*
X006129Y006073D02*
X000410Y006073D01*
X000410Y005975D02*
X006170Y005975D01*
X006237Y005876D02*
X000410Y005876D01*
X000410Y005778D02*
X006336Y005778D01*
X006571Y005384D02*
X002426Y005384D01*
X002487Y005285D02*
X006473Y005285D01*
X006374Y005187D02*
X002525Y005187D01*
X002536Y004990D02*
X006177Y004990D01*
X006079Y004891D02*
X002513Y004891D01*
X002469Y004793D02*
X005980Y004793D01*
X005882Y004694D02*
X002392Y004694D01*
X002260Y004596D02*
X005783Y004596D01*
X006276Y005088D02*
X001700Y005088D01*
X001700Y005187D02*
X001600Y005187D01*
X001600Y005107D02*
X001600Y005577D01*
X001239Y005577D01*
X001158Y005565D01*
X001080Y005539D01*
X001007Y005502D01*
X000941Y005454D01*
X000883Y005396D01*
X000835Y005330D01*
X000798Y005257D01*
X000773Y005179D01*
X000761Y005107D01*
X001600Y005107D01*
X001600Y005088D02*
X000410Y005088D01*
X000410Y004990D02*
X000764Y004990D01*
X000787Y004891D02*
X000410Y004891D01*
X000410Y004793D02*
X000831Y004793D01*
X000908Y004694D02*
X000410Y004694D01*
X000410Y004596D02*
X001040Y004596D01*
X000775Y005187D02*
X000410Y005187D01*
X000410Y005285D02*
X000813Y005285D01*
X000874Y005384D02*
X000410Y005384D01*
X000410Y005482D02*
X000980Y005482D01*
X000410Y005581D02*
X006768Y005581D01*
X006670Y005482D02*
X002320Y005482D01*
X001700Y005482D02*
X001600Y005482D01*
X001600Y005384D02*
X001700Y005384D01*
X001700Y005285D02*
X001600Y005285D01*
X000410Y005679D02*
X006867Y005679D01*
X006964Y005778D02*
X006965Y005778D01*
X007791Y004793D02*
X009890Y004793D01*
X009890Y004891D02*
X007889Y004891D01*
X007988Y004990D02*
X009890Y004990D01*
X009890Y005088D02*
X008086Y005088D01*
X008185Y005187D02*
X009890Y005187D01*
X009890Y005285D02*
X008230Y005285D01*
X008271Y005384D02*
X009890Y005384D01*
X009890Y005482D02*
X008290Y005482D01*
X008290Y005581D02*
X009890Y005581D01*
X009890Y005679D02*
X008290Y005679D01*
X008290Y005778D02*
X008480Y005778D01*
X008600Y005778D02*
X008700Y005778D01*
X008700Y005876D02*
X008600Y005876D01*
X008600Y005975D02*
X008700Y005975D01*
X008700Y006073D02*
X008600Y006073D01*
X008600Y006172D02*
X008700Y006172D01*
X008700Y006270D02*
X008600Y006270D01*
X008600Y006369D02*
X008700Y006369D01*
X008700Y006467D02*
X008600Y006467D01*
X008600Y006960D02*
X008700Y006960D01*
X008700Y007058D02*
X008600Y007058D01*
X008600Y007157D02*
X008700Y007157D01*
X008700Y007255D02*
X008600Y007255D01*
X008600Y007354D02*
X008700Y007354D01*
X008532Y007354D02*
X007935Y007354D01*
X008046Y007255D02*
X008340Y007255D01*
X008253Y007157D02*
X008123Y007157D01*
X008164Y007058D02*
X008201Y007058D01*
X008290Y005876D02*
X008322Y005876D01*
X008820Y005778D02*
X009890Y005778D01*
X009890Y005876D02*
X008978Y005876D01*
X009060Y005975D02*
X009890Y005975D01*
X009890Y006073D02*
X009105Y006073D01*
X009127Y006172D02*
X009890Y006172D01*
X009890Y006270D02*
X009130Y006270D01*
X009130Y006369D02*
X009890Y006369D01*
X009890Y006467D02*
X009130Y006467D01*
X009890Y007551D02*
X000410Y007551D01*
X000410Y007649D02*
X009890Y007649D01*
X009890Y007748D02*
X000410Y007748D01*
X000410Y007846D02*
X009890Y007846D01*
X009890Y007945D02*
X000410Y007945D01*
X000410Y008043D02*
X009890Y008043D01*
X009890Y008142D02*
X000410Y008142D01*
X000410Y008240D02*
X009890Y008240D01*
X009890Y008339D02*
X000410Y008339D01*
X000410Y008437D02*
X009890Y008437D01*
X009890Y008536D02*
X001907Y008536D01*
X001979Y008566D02*
X002142Y008729D01*
X002230Y008942D01*
X002230Y009173D01*
X002142Y009386D01*
X001979Y009549D01*
X001879Y009590D01*
X001923Y009613D01*
X001989Y009661D01*
X002047Y009719D01*
X002095Y009785D01*
X002132Y009858D01*
X002157Y009936D01*
X002169Y010007D01*
X001700Y010007D01*
X001700Y010107D01*
X002169Y010107D01*
X002157Y010179D01*
X002132Y010257D01*
X002095Y010330D01*
X002047Y010396D01*
X001989Y010454D01*
X001923Y010502D01*
X001879Y010524D01*
X001979Y010566D01*
X002142Y010729D01*
X002230Y010942D01*
X002230Y011173D01*
X002142Y011386D01*
X001979Y011549D01*
X001765Y011637D01*
X001535Y011637D01*
X001321Y011549D01*
X001158Y011386D01*
X001070Y011173D01*
X001070Y010942D01*
X001158Y010729D01*
X001321Y010566D01*
X001421Y010524D01*
X001377Y010502D01*
X001311Y010454D01*
X001253Y010396D01*
X001205Y010330D01*
X001168Y010257D01*
X001143Y010179D01*
X001131Y010107D01*
X001600Y010107D01*
X001600Y010007D01*
X001131Y010007D01*
X001143Y009936D01*
X001168Y009858D01*
X001205Y009785D01*
X001253Y009719D01*
X001311Y009661D01*
X001377Y009613D01*
X001421Y009590D01*
X001321Y009549D01*
X001158Y009386D01*
X001070Y009173D01*
X001070Y008942D01*
X001158Y008729D01*
X001321Y008566D01*
X001535Y008477D01*
X001765Y008477D01*
X001979Y008566D01*
X002047Y008634D02*
X009890Y008634D01*
X009890Y008733D02*
X002143Y008733D01*
X002184Y008831D02*
X009890Y008831D01*
X009890Y008930D02*
X002225Y008930D01*
X002230Y009028D02*
X009890Y009028D01*
X009890Y009127D02*
X002230Y009127D01*
X002208Y009225D02*
X009890Y009225D01*
X009890Y009324D02*
X002167Y009324D01*
X002105Y009422D02*
X009890Y009422D01*
X009890Y009521D02*
X002007Y009521D01*
X001932Y009619D02*
X009890Y009619D01*
X009890Y009718D02*
X002046Y009718D01*
X002111Y009816D02*
X009890Y009816D01*
X009890Y009915D02*
X002150Y009915D01*
X002168Y010112D02*
X009890Y010112D01*
X009890Y010210D02*
X002147Y010210D01*
X002105Y010309D02*
X009890Y010309D01*
X009890Y010407D02*
X002035Y010407D01*
X001915Y010506D02*
X009890Y010506D01*
X009890Y010604D02*
X002017Y010604D01*
X002116Y010703D02*
X009890Y010703D01*
X009890Y010801D02*
X002172Y010801D01*
X002213Y010900D02*
X009890Y010900D01*
X009890Y010998D02*
X002230Y010998D01*
X002230Y011097D02*
X009890Y011097D01*
X009890Y011195D02*
X002221Y011195D01*
X002180Y011294D02*
X009890Y011294D01*
X009890Y011392D02*
X002135Y011392D01*
X002037Y011491D02*
X009890Y011491D01*
X009890Y011589D02*
X001881Y011589D01*
X001822Y011786D02*
X000410Y011786D01*
X000410Y011688D02*
X007067Y011688D01*
X006824Y011786D02*
X002478Y011786D01*
X002813Y011885D02*
X006654Y011885D01*
X006494Y011983D02*
X003015Y011983D01*
X002902Y011911D02*
X002902Y011911D01*
X003168Y012082D02*
X006395Y012082D01*
X006297Y012180D02*
X003321Y012180D01*
X003413Y012279D02*
X006198Y012279D01*
X006126Y012377D02*
X003498Y012377D01*
X003583Y012476D02*
X006069Y012476D01*
X006012Y012574D02*
X003669Y012574D01*
X003673Y012579D02*
X003673Y012579D01*
X003716Y012673D02*
X005955Y012673D01*
X005908Y012771D02*
X003761Y012771D01*
X003806Y012870D02*
X005882Y012870D01*
X005855Y012968D02*
X003851Y012968D01*
X003889Y013067D02*
X005829Y013067D01*
X005803Y013165D02*
X003904Y013165D01*
X003918Y013264D02*
X005790Y013264D01*
X005790Y013362D02*
X003932Y013362D01*
X003946Y013461D02*
X005790Y013461D01*
X005790Y013559D02*
X003960Y013559D01*
X003946Y013658D02*
X005790Y013658D01*
X005805Y013756D02*
X003931Y013756D01*
X003917Y013855D02*
X005831Y013855D01*
X005857Y013953D02*
X003903Y013953D01*
X003889Y014052D02*
X005884Y014052D01*
X005910Y014150D02*
X003849Y014150D01*
X003804Y014249D02*
X005959Y014249D01*
X006016Y014347D02*
X003759Y014347D01*
X003714Y014446D02*
X006073Y014446D01*
X006130Y014544D02*
X003665Y014544D01*
X003673Y014536D02*
X003673Y014536D01*
X003580Y014643D02*
X006205Y014643D01*
X006304Y014741D02*
X003495Y014741D01*
X003409Y014840D02*
X006402Y014840D01*
X006501Y014938D02*
X003315Y014938D01*
X003335Y014925D02*
X003335Y014925D01*
X003162Y015037D02*
X006666Y015037D01*
X006836Y015135D02*
X003008Y015135D01*
X002799Y015234D02*
X007094Y015234D01*
X008206Y015234D02*
X009890Y015234D01*
X009890Y015135D02*
X008464Y015135D01*
X008634Y015037D02*
X009890Y015037D01*
X009890Y014938D02*
X008799Y014938D01*
X008898Y014840D02*
X009890Y014840D01*
X009890Y014741D02*
X008996Y014741D01*
X009095Y014643D02*
X009890Y014643D01*
X009890Y014544D02*
X009170Y014544D01*
X009227Y014446D02*
X009890Y014446D01*
X009890Y014347D02*
X009284Y014347D01*
X009341Y014249D02*
X009890Y014249D01*
X009890Y014150D02*
X009390Y014150D01*
X009416Y014052D02*
X009890Y014052D01*
X009890Y013953D02*
X009443Y013953D01*
X009469Y013855D02*
X009890Y013855D01*
X009890Y013756D02*
X009495Y013756D01*
X009510Y013658D02*
X009890Y013658D01*
X009890Y013559D02*
X009510Y013559D01*
X009510Y013461D02*
X009890Y013461D01*
X009890Y013362D02*
X009510Y013362D01*
X009510Y013264D02*
X009890Y013264D01*
X009890Y013165D02*
X009497Y013165D01*
X009471Y013067D02*
X009890Y013067D01*
X009890Y012968D02*
X009445Y012968D01*
X009418Y012870D02*
X009890Y012870D01*
X009890Y012771D02*
X009392Y012771D01*
X009345Y012673D02*
X009890Y012673D01*
X009890Y012574D02*
X009288Y012574D01*
X009231Y012476D02*
X009890Y012476D01*
X009890Y012377D02*
X009174Y012377D01*
X009102Y012279D02*
X009890Y012279D01*
X009890Y012180D02*
X009003Y012180D01*
X008905Y012082D02*
X009890Y012082D01*
X009890Y011983D02*
X008806Y011983D01*
X008646Y011885D02*
X009890Y011885D01*
X009890Y011786D02*
X008476Y011786D01*
X008233Y011688D02*
X009890Y011688D01*
X009890Y010013D02*
X001700Y010013D01*
X001600Y010013D02*
X000410Y010013D01*
X000410Y009915D02*
X001150Y009915D01*
X001189Y009816D02*
X000410Y009816D01*
X000410Y009718D02*
X001254Y009718D01*
X001368Y009619D02*
X000410Y009619D01*
X000410Y009521D02*
X001293Y009521D01*
X001195Y009422D02*
X000410Y009422D01*
X000410Y009324D02*
X001133Y009324D01*
X001092Y009225D02*
X000410Y009225D01*
X000410Y009127D02*
X001070Y009127D01*
X001070Y009028D02*
X000410Y009028D01*
X000410Y008930D02*
X001075Y008930D01*
X001116Y008831D02*
X000410Y008831D01*
X000410Y008733D02*
X001157Y008733D01*
X001253Y008634D02*
X000410Y008634D01*
X000410Y008536D02*
X001393Y008536D01*
X001132Y010112D02*
X000410Y010112D01*
X000410Y010210D02*
X001153Y010210D01*
X001195Y010309D02*
X000410Y010309D01*
X000410Y010407D02*
X001265Y010407D01*
X001385Y010506D02*
X000410Y010506D01*
X000410Y010604D02*
X001283Y010604D01*
X001184Y010703D02*
X000410Y010703D01*
X000410Y010801D02*
X001128Y010801D01*
X001087Y010900D02*
X000410Y010900D01*
X000410Y010998D02*
X001070Y010998D01*
X001070Y011097D02*
X000410Y011097D01*
X000410Y011195D02*
X001079Y011195D01*
X001120Y011294D02*
X000410Y011294D01*
X000410Y011392D02*
X001165Y011392D01*
X001263Y011491D02*
X000410Y011491D01*
X000410Y011589D02*
X001419Y011589D01*
X001487Y011885D02*
X000410Y011885D01*
X000410Y011983D02*
X001285Y011983D01*
X001398Y011911D02*
X001398Y011911D01*
X001132Y012082D02*
X000410Y012082D01*
X000410Y012180D02*
X000979Y012180D01*
X000965Y012189D02*
X000965Y012189D01*
X000887Y012279D02*
X000410Y012279D01*
X000410Y012377D02*
X000802Y012377D01*
X000717Y012476D02*
X000410Y012476D01*
X000410Y012574D02*
X000631Y012574D01*
X000584Y012673D02*
X000410Y012673D01*
X000410Y012771D02*
X000539Y012771D01*
X000494Y012870D02*
X000410Y012870D01*
X000410Y012968D02*
X000449Y012968D01*
X000410Y013067D02*
X000411Y013067D01*
X006935Y007354D02*
X007365Y007354D01*
X007254Y007255D02*
X007046Y007255D01*
X007123Y007157D02*
X007177Y007157D01*
X007692Y004694D02*
X009890Y004694D01*
X009890Y004596D02*
X007594Y004596D01*
D16*
X009150Y005057D03*
X009150Y008057D03*
X009150Y009557D03*
X009150Y010557D03*
X009150Y011557D03*
X009450Y012257D03*
X008150Y011457D03*
X008150Y010557D03*
X008150Y009557D03*
X007150Y009557D03*
X007150Y010557D03*
X007150Y011457D03*
X006150Y011557D03*
X005900Y012212D03*
X006150Y010557D03*
X006150Y009557D03*
X006150Y008057D03*
X007650Y008057D03*
X004650Y012557D03*
X004650Y013557D03*
X004650Y014557D03*
X005860Y014467D03*
X003150Y010057D03*
X002650Y007557D03*
X002650Y006057D03*
X001150Y006057D03*
X001150Y007557D03*
X009405Y014502D03*
D17*
X007650Y006557D02*
X007650Y005557D01*
X005528Y003435D01*
X005528Y003057D01*
X003650Y003057D01*
X002778Y002185D01*
X002778Y001557D01*
X005528Y001557D02*
X005528Y003057D01*
M02*
