G75*
%MOIN*%
%OFA0B0*%
%FSLAX24Y24*%
%IPPOS*%
%LPD*%
%AMOC8*
5,1,8,0,0,1.08239X$1,22.5*
%
%ADD10C,0.0100*%
%ADD11C,0.0030*%
%ADD12C,0.0000*%
D10*
X000150Y000557D02*
X000150Y015557D01*
X010150Y015557D01*
X010150Y000557D01*
X000150Y000557D01*
D11*
X003453Y004447D02*
X003405Y004496D01*
X003405Y004592D01*
X003453Y004641D01*
X003502Y004641D01*
X003550Y004592D01*
X003550Y004496D01*
X003598Y004447D01*
X003647Y004447D01*
X003695Y004496D01*
X003695Y004592D01*
X003647Y004641D01*
X003695Y004742D02*
X003405Y004742D01*
X003405Y004935D01*
X003405Y005037D02*
X003695Y005037D01*
X003695Y005182D01*
X003647Y005230D01*
X003550Y005230D01*
X003502Y005182D01*
X003502Y005037D01*
X003550Y004839D02*
X003550Y004742D01*
X003695Y004742D02*
X003695Y004935D01*
X003885Y004935D02*
X004078Y004935D01*
X004175Y004839D01*
X004078Y004742D01*
X003885Y004742D01*
X003933Y004641D02*
X003885Y004592D01*
X003885Y004496D01*
X003933Y004447D01*
X004127Y004447D01*
X004175Y004496D01*
X004175Y004592D01*
X004127Y004641D01*
X004030Y004742D02*
X004030Y004935D01*
X003885Y005037D02*
X003885Y005230D01*
X003885Y005331D02*
X003885Y005525D01*
X003885Y005626D02*
X003885Y005771D01*
X003933Y005819D01*
X003982Y005819D01*
X004030Y005771D01*
X004030Y005626D01*
X004030Y005771D02*
X004078Y005819D01*
X004127Y005819D01*
X004175Y005771D01*
X004175Y005626D01*
X003885Y005626D01*
X004030Y005428D02*
X004030Y005331D01*
X004175Y005331D02*
X003885Y005331D01*
X003885Y005037D02*
X004175Y005037D01*
X004175Y005331D02*
X004175Y005525D01*
X004365Y005526D02*
X004655Y005526D01*
X004655Y005429D02*
X004655Y005623D01*
X004655Y005724D02*
X004365Y005724D01*
X004365Y005918D01*
X004365Y006019D02*
X004655Y006019D01*
X004655Y006164D01*
X004607Y006212D01*
X004510Y006212D01*
X004462Y006164D01*
X004462Y006019D01*
X004462Y006115D02*
X004365Y006212D01*
X004175Y006215D02*
X004078Y006312D01*
X004175Y006409D01*
X003885Y006409D01*
X003933Y006510D02*
X003885Y006558D01*
X003885Y006655D01*
X003933Y006703D01*
X004127Y006703D01*
X004175Y006655D01*
X004175Y006558D01*
X004127Y006510D01*
X003933Y006510D01*
X003695Y006510D02*
X003405Y006510D01*
X003405Y006703D01*
X003405Y006804D02*
X003695Y006804D01*
X003695Y006950D01*
X003647Y006998D01*
X003550Y006998D01*
X003502Y006950D01*
X003502Y006804D01*
X003502Y006901D02*
X003405Y006998D01*
X003550Y006607D02*
X003550Y006510D01*
X003502Y006409D02*
X003453Y006409D01*
X003405Y006360D01*
X003405Y006215D01*
X003695Y006215D01*
X003695Y006360D01*
X003647Y006409D01*
X003598Y006409D01*
X003550Y006360D01*
X003550Y006215D01*
X003550Y006360D02*
X003502Y006409D01*
X003695Y006510D02*
X003695Y006703D01*
X003885Y006853D02*
X003885Y006950D01*
X003933Y006998D01*
X004127Y006998D01*
X004175Y006950D01*
X004175Y006853D01*
X004127Y006804D01*
X003933Y006804D01*
X003885Y006853D01*
X003885Y007099D02*
X004175Y007099D01*
X004175Y007244D01*
X004127Y007293D01*
X004030Y007293D01*
X003982Y007244D01*
X003982Y007099D01*
X003982Y007196D02*
X003885Y007293D01*
X003885Y007394D02*
X003885Y007587D01*
X004030Y007490D02*
X004030Y007394D01*
X004175Y007394D02*
X003885Y007394D01*
X003695Y007442D02*
X003647Y007394D01*
X003695Y007442D02*
X003695Y007539D01*
X003647Y007587D01*
X003598Y007587D01*
X003405Y007394D01*
X003405Y007587D01*
X003453Y007688D02*
X003405Y007737D01*
X003405Y007833D01*
X003453Y007882D01*
X003647Y007882D01*
X003453Y007688D01*
X003647Y007688D01*
X003695Y007737D01*
X003695Y007833D01*
X003647Y007882D01*
X003598Y007983D02*
X003695Y008080D01*
X003405Y008080D01*
X003405Y007983D02*
X003405Y008177D01*
X003405Y008423D02*
X003695Y008423D01*
X003550Y008278D01*
X003550Y008471D01*
X004175Y007587D02*
X004175Y007394D01*
X004365Y007391D02*
X004558Y007391D01*
X004655Y007294D01*
X004558Y007197D01*
X004365Y007197D01*
X004413Y007096D02*
X004607Y007096D01*
X004655Y007048D01*
X004655Y006951D01*
X004607Y006903D01*
X004413Y006903D01*
X004365Y006951D01*
X004365Y007048D01*
X004413Y007096D01*
X004510Y007197D02*
X004510Y007391D01*
X004462Y007492D02*
X004462Y007637D01*
X004510Y007685D01*
X004607Y007685D01*
X004655Y007637D01*
X004655Y007492D01*
X004365Y007492D01*
X004462Y007589D02*
X004365Y007685D01*
X004365Y007787D02*
X004365Y007932D01*
X004413Y007980D01*
X004607Y007980D01*
X004655Y007932D01*
X004655Y007787D01*
X004365Y007787D01*
X004845Y007489D02*
X004845Y007295D01*
X005135Y007295D01*
X005135Y007489D01*
X004990Y007392D02*
X004990Y007295D01*
X005135Y007194D02*
X005135Y007001D01*
X005135Y007098D02*
X004845Y007098D01*
X004845Y006900D02*
X005038Y006900D01*
X005135Y006803D01*
X005038Y006706D01*
X004845Y006706D01*
X004655Y006753D02*
X004607Y006801D01*
X004558Y006801D01*
X004510Y006753D01*
X004510Y006608D01*
X004365Y006608D02*
X004365Y006753D01*
X004413Y006801D01*
X004462Y006801D01*
X004510Y006753D01*
X004365Y006608D02*
X004655Y006608D01*
X004655Y006753D01*
X004845Y006508D02*
X005135Y006508D01*
X005135Y006412D02*
X005135Y006605D01*
X004990Y006706D02*
X004990Y006900D01*
X004942Y006310D02*
X004893Y006310D01*
X004845Y006262D01*
X004845Y006165D01*
X004893Y006117D01*
X004990Y006165D02*
X004990Y006262D01*
X004942Y006310D01*
X004990Y006165D02*
X005038Y006117D01*
X005087Y006117D01*
X005135Y006165D01*
X005135Y006262D01*
X005087Y006310D01*
X004655Y005918D02*
X004655Y005724D01*
X004845Y005673D02*
X004845Y005528D01*
X005135Y005528D01*
X005135Y005673D01*
X005087Y005721D01*
X004893Y005721D01*
X004845Y005673D01*
X004845Y005428D02*
X004845Y005331D01*
X004845Y005380D02*
X005135Y005380D01*
X005135Y005428D02*
X005135Y005331D01*
X005135Y005037D02*
X004845Y005037D01*
X004845Y005230D01*
X004655Y005233D02*
X004655Y005330D01*
X004655Y005281D02*
X004365Y005281D01*
X004365Y005233D02*
X004365Y005330D01*
X004365Y005132D02*
X004655Y005132D01*
X004655Y004938D02*
X004365Y005132D01*
X004365Y004938D02*
X004655Y004938D01*
X004607Y004837D02*
X004655Y004789D01*
X004655Y004692D01*
X004607Y004644D01*
X004413Y004644D01*
X004365Y004692D01*
X004365Y004789D01*
X004413Y004837D01*
X004510Y004837D01*
X004510Y004740D01*
X004365Y004544D02*
X004365Y004447D01*
X004365Y004496D02*
X004655Y004496D01*
X004655Y004544D02*
X004655Y004447D01*
X004845Y004496D02*
X004845Y004592D01*
X004893Y004641D01*
X004942Y004641D01*
X004990Y004592D01*
X004990Y004496D01*
X005038Y004447D01*
X005087Y004447D01*
X005135Y004496D01*
X005135Y004592D01*
X005087Y004641D01*
X005087Y004742D02*
X004893Y004742D01*
X004845Y004790D01*
X004845Y004887D01*
X004893Y004935D01*
X005087Y004935D01*
X005135Y004887D01*
X005135Y004790D01*
X005087Y004742D01*
X004845Y004496D02*
X004893Y004447D01*
X004510Y005724D02*
X004510Y005821D01*
X004175Y006215D02*
X003885Y006215D01*
X003695Y006114D02*
X003405Y006114D01*
X003405Y005920D02*
X003695Y005920D01*
X003598Y006017D01*
X003695Y006114D01*
X003695Y005819D02*
X003695Y005626D01*
X003405Y005626D01*
X003405Y005819D01*
X003550Y005723D02*
X003550Y005626D01*
X003695Y005525D02*
X003695Y005331D01*
X003695Y005428D02*
X003405Y005428D01*
D12*
X007559Y002557D02*
X007561Y002605D01*
X007567Y002653D01*
X007577Y002700D01*
X007590Y002746D01*
X007608Y002791D01*
X007628Y002835D01*
X007653Y002877D01*
X007681Y002916D01*
X007711Y002953D01*
X007745Y002987D01*
X007782Y003019D01*
X007820Y003048D01*
X007861Y003073D01*
X007904Y003095D01*
X007949Y003113D01*
X007995Y003127D01*
X008042Y003138D01*
X008090Y003145D01*
X008138Y003148D01*
X008186Y003147D01*
X008234Y003142D01*
X008282Y003133D01*
X008328Y003121D01*
X008373Y003104D01*
X008417Y003084D01*
X008459Y003061D01*
X008499Y003034D01*
X008537Y003004D01*
X008572Y002971D01*
X008604Y002935D01*
X008634Y002897D01*
X008660Y002856D01*
X008682Y002813D01*
X008702Y002769D01*
X008717Y002724D01*
X008729Y002677D01*
X008737Y002629D01*
X008741Y002581D01*
X008741Y002533D01*
X008737Y002485D01*
X008729Y002437D01*
X008717Y002390D01*
X008702Y002345D01*
X008682Y002301D01*
X008660Y002258D01*
X008634Y002217D01*
X008604Y002179D01*
X008572Y002143D01*
X008537Y002110D01*
X008499Y002080D01*
X008459Y002053D01*
X008417Y002030D01*
X008373Y002010D01*
X008328Y001993D01*
X008282Y001981D01*
X008234Y001972D01*
X008186Y001967D01*
X008138Y001966D01*
X008090Y001969D01*
X008042Y001976D01*
X007995Y001987D01*
X007949Y002001D01*
X007904Y002019D01*
X007861Y002041D01*
X007820Y002066D01*
X007782Y002095D01*
X007745Y002127D01*
X007711Y002161D01*
X007681Y002198D01*
X007653Y002237D01*
X007628Y002279D01*
X007608Y002323D01*
X007590Y002368D01*
X007577Y002414D01*
X007567Y002461D01*
X007561Y002509D01*
X007559Y002557D01*
X007000Y013457D02*
X007002Y013507D01*
X007008Y013557D01*
X007018Y013607D01*
X007031Y013655D01*
X007048Y013703D01*
X007069Y013749D01*
X007093Y013793D01*
X007121Y013835D01*
X007152Y013875D01*
X007186Y013912D01*
X007223Y013947D01*
X007262Y013978D01*
X007303Y014007D01*
X007347Y014032D01*
X007393Y014054D01*
X007440Y014072D01*
X007488Y014086D01*
X007537Y014097D01*
X007587Y014104D01*
X007637Y014107D01*
X007688Y014106D01*
X007738Y014101D01*
X007788Y014092D01*
X007836Y014080D01*
X007884Y014063D01*
X007930Y014043D01*
X007975Y014020D01*
X008018Y013993D01*
X008058Y013963D01*
X008096Y013930D01*
X008131Y013894D01*
X008164Y013855D01*
X008193Y013814D01*
X008219Y013771D01*
X008242Y013726D01*
X008261Y013679D01*
X008276Y013631D01*
X008288Y013582D01*
X008296Y013532D01*
X008300Y013482D01*
X008300Y013432D01*
X008296Y013382D01*
X008288Y013332D01*
X008276Y013283D01*
X008261Y013235D01*
X008242Y013188D01*
X008219Y013143D01*
X008193Y013100D01*
X008164Y013059D01*
X008131Y013020D01*
X008096Y012984D01*
X008058Y012951D01*
X008018Y012921D01*
X007975Y012894D01*
X007930Y012871D01*
X007884Y012851D01*
X007836Y012834D01*
X007788Y012822D01*
X007738Y012813D01*
X007688Y012808D01*
X007637Y012807D01*
X007587Y012810D01*
X007537Y012817D01*
X007488Y012828D01*
X007440Y012842D01*
X007393Y012860D01*
X007347Y012882D01*
X007303Y012907D01*
X007262Y012936D01*
X007223Y012967D01*
X007186Y013002D01*
X007152Y013039D01*
X007121Y013079D01*
X007093Y013121D01*
X007069Y013165D01*
X007048Y013211D01*
X007031Y013259D01*
X007018Y013307D01*
X007008Y013357D01*
X007002Y013407D01*
X007000Y013457D01*
X001559Y013557D02*
X001561Y013605D01*
X001567Y013653D01*
X001577Y013700D01*
X001590Y013746D01*
X001608Y013791D01*
X001628Y013835D01*
X001653Y013877D01*
X001681Y013916D01*
X001711Y013953D01*
X001745Y013987D01*
X001782Y014019D01*
X001820Y014048D01*
X001861Y014073D01*
X001904Y014095D01*
X001949Y014113D01*
X001995Y014127D01*
X002042Y014138D01*
X002090Y014145D01*
X002138Y014148D01*
X002186Y014147D01*
X002234Y014142D01*
X002282Y014133D01*
X002328Y014121D01*
X002373Y014104D01*
X002417Y014084D01*
X002459Y014061D01*
X002499Y014034D01*
X002537Y014004D01*
X002572Y013971D01*
X002604Y013935D01*
X002634Y013897D01*
X002660Y013856D01*
X002682Y013813D01*
X002702Y013769D01*
X002717Y013724D01*
X002729Y013677D01*
X002737Y013629D01*
X002741Y013581D01*
X002741Y013533D01*
X002737Y013485D01*
X002729Y013437D01*
X002717Y013390D01*
X002702Y013345D01*
X002682Y013301D01*
X002660Y013258D01*
X002634Y013217D01*
X002604Y013179D01*
X002572Y013143D01*
X002537Y013110D01*
X002499Y013080D01*
X002459Y013053D01*
X002417Y013030D01*
X002373Y013010D01*
X002328Y012993D01*
X002282Y012981D01*
X002234Y012972D01*
X002186Y012967D01*
X002138Y012966D01*
X002090Y012969D01*
X002042Y012976D01*
X001995Y012987D01*
X001949Y013001D01*
X001904Y013019D01*
X001861Y013041D01*
X001820Y013066D01*
X001782Y013095D01*
X001745Y013127D01*
X001711Y013161D01*
X001681Y013198D01*
X001653Y013237D01*
X001628Y013279D01*
X001608Y013323D01*
X001590Y013368D01*
X001577Y013414D01*
X001567Y013461D01*
X001561Y013509D01*
X001559Y013557D01*
M02*
