G75*
%MOIN*%
%OFA0B0*%
%FSLAX24Y24*%
%IPPOS*%
%LPD*%
%AMOC8*
5,1,8,0,0,1.08239X$1,22.5*
%
%ADD10C,0.0118*%
%ADD11R,0.0433X0.0394*%
D10*
X004167Y007919D02*
X004167Y008195D01*
X004443Y008195D01*
X004443Y007919D01*
X004167Y007919D01*
X004167Y008036D02*
X004443Y008036D01*
X004443Y008153D02*
X004167Y008153D01*
X004857Y008195D02*
X004857Y007919D01*
X004857Y008195D02*
X005133Y008195D01*
X005133Y007919D01*
X004857Y007919D01*
X004857Y008036D02*
X005133Y008036D01*
X005133Y008153D02*
X004857Y008153D01*
X004857Y010919D02*
X004857Y011195D01*
X005133Y011195D01*
X005133Y010919D01*
X004857Y010919D01*
X004857Y011036D02*
X005133Y011036D01*
X005133Y011153D02*
X004857Y011153D01*
X004167Y011195D02*
X004167Y010919D01*
X004167Y011195D02*
X004443Y011195D01*
X004443Y010919D01*
X004167Y010919D01*
X004167Y011036D02*
X004443Y011036D01*
X004443Y011153D02*
X004167Y011153D01*
D11*
X004315Y005557D03*
X004985Y005557D03*
X004985Y006557D03*
X004315Y006557D03*
X004315Y009057D03*
X004985Y009057D03*
X004985Y010057D03*
X004315Y010057D03*
M02*
