G75*
%MOIN*%
%OFA0B0*%
%FSLAX24Y24*%
%IPPOS*%
%LPD*%
%AMOC8*
5,1,8,0,0,1.08239X$1,22.5*
%
%ADD10R,0.0394X0.0433*%
%ADD11R,0.0433X0.0394*%
%ADD12C,0.0118*%
D10*
X007865Y008300D03*
X008535Y008300D03*
X009865Y008300D03*
X010535Y008300D03*
X002285Y012300D03*
X001615Y012300D03*
D11*
X007365Y011300D03*
X008035Y011300D03*
D12*
X007717Y006938D02*
X007717Y006662D01*
X007717Y006938D02*
X007993Y006938D01*
X007993Y006662D01*
X007717Y006662D01*
X007717Y006779D02*
X007993Y006779D01*
X007993Y006896D02*
X007717Y006896D01*
X008407Y006938D02*
X008407Y006662D01*
X008407Y006938D02*
X008683Y006938D01*
X008683Y006662D01*
X008407Y006662D01*
X008407Y006779D02*
X008683Y006779D01*
X008683Y006896D02*
X008407Y006896D01*
X009717Y006938D02*
X009717Y006662D01*
X009717Y006938D02*
X009993Y006938D01*
X009993Y006662D01*
X009717Y006662D01*
X009717Y006779D02*
X009993Y006779D01*
X009993Y006896D02*
X009717Y006896D01*
X010407Y006938D02*
X010407Y006662D01*
X010407Y006938D02*
X010683Y006938D01*
X010683Y006662D01*
X010407Y006662D01*
X010407Y006779D02*
X010683Y006779D01*
X010683Y006896D02*
X010407Y006896D01*
M02*
